Final project
…
Unnest the coefficients vector

tidy_data_structure = tidy_data_structure %>%
unnest(coefficients)

tidy_data_structure

# A tibble: 300 × 7
   splits             id     train    validate reg_sub_fits predictors coeffic…¹
   <list>             <chr>  <list>   <list>   <list>       <list>     <list>   
 1 <split [2596/289]> Fold01 <tibble> <tibble> <regsbsts>   <dbl[…]>   <dbl [2]>
 2 <split [2596/289]> Fold01 <tibble> <tibble> <regsbsts>   <dbl[…]>   <dbl [3]>
 3 <split [2596/289]> Fold01 <tibble> <tibble> <regsbsts>   <dbl[…]>   <dbl [4]>
 4 <split [2596/289]> Fold01 <tibble> <tibble> <regsbsts>   <dbl[…]>   <dbl [5]>
 5 <split [2596/289]> Fold01 <tibble> <tibble> <regsbsts>   <dbl[…]>   <dbl [6]>
 6 <split [2596/289]> Fold01 <tibble> <tibble> <regsbsts>   <dbl[…]>   <dbl [7]>
 7 <split [2596/289]> Fold01 <tibble> <tibble> <regsbsts>   <dbl[…]>   <dbl [8]>
 8 <split [2596/289]> Fold01 <tibble> <tibble> <regsbsts>   <dbl[…]>   <dbl [9]>
 9 <split [2596/289]> Fold01 <tibble> <tibble> <regsbsts>   <dbl[…]>   <dbl>    
10 <split [2596/289]> Fold01 <tibble> <tibble> <regsbsts>   <dbl[…]>   <dbl>    
# … with 290 more rows, and abbreviated variable name ¹​coefficients

For each model, compute the corresponding \(\bf X\) matrix for the test observations

tidy_data_structure = tidy_data_structure %>% 
 mutate(
    preds_mat = map2(.x=predictors, .y=coefficients, ~.x[,names(.y)]),
 )
tidy_data_structure

# A tibble: 300 × 8
   splits             id     train    validate reg_sub_fits predictors coeffic…¹
   <list>             <chr>  <list>   <list>   <list>       <list>     <list>   
 1 <split [2596/289]> Fold01 <tibble> <tibble> <regsbsts>   <dbl[…]>   <dbl [2]>
 2 <split [2596/289]> Fold01 <tibble> <tibble> <regsbsts>   <dbl[…]>   <dbl [3]>
 3 <split [2596/289]> Fold01 <tibble> <tibble> <regsbsts>   <dbl[…]>   <dbl [4]>
 4 <split [2596/289]> Fold01 <tibble> <tibble> <regsbsts>   <dbl[…]>   <dbl [5]>
 5 <split [2596/289]> Fold01 <tibble> <tibble> <regsbsts>   <dbl[…]>   <dbl [6]>
 6 <split [2596/289]> Fold01 <tibble> <tibble> <regsbsts>   <dbl[…]>   <dbl [7]>
 7 <split [2596/289]> Fold01 <tibble> <tibble> <regsbsts>   <dbl[…]>   <dbl [8]>
 8 <split [2596/289]> Fold01 <tibble> <tibble> <regsbsts>   <dbl[…]>   <dbl [9]>
 9 <split [2596/289]> Fold01 <tibble> <tibble> <regsbsts>   <dbl[…]>   <dbl>    
10 <split [2596/289]> Fold01 <tibble> <tibble> <regsbsts>   <dbl[…]>   <dbl>    
# … with 290 more rows, 1 more variable: preds_mat <list>, and abbreviated
#   variable name ¹​coefficients

Compute \(\hat{y}\).

tidy_data_structure = tidy_data_structure %>% 
 mutate(
    preds_mat = map2(.x=predictors, .y=coefficients, ~.x[,names(.y)]),
    yhat = map2(.x=preds_mat, .y=coefficients, ~.x %*% .y)
 )
tidy_data_structure

# A tibble: 300 × 9
   splits             id     train    validate reg_sub_fits predictors coeffic…¹
   <list>             <chr>  <list>   <list>   <list>       <list>     <list>   
 1 <split [2596/289]> Fold01 <tibble> <tibble> <regsbsts>   <dbl[…]>   <dbl [2]>
 2 <split [2596/289]> Fold01 <tibble> <tibble> <regsbsts>   <dbl[…]>   <dbl [3]>
 3 <split [2596/289]> Fold01 <tibble> <tibble> <regsbsts>   <dbl[…]>   <dbl [4]>
 4 <split [2596/289]> Fold01 <tibble> <tibble> <regsbsts>   <dbl[…]>   <dbl [5]>
 5 <split [2596/289]> Fold01 <tibble> <tibble> <regsbsts>   <dbl[…]>   <dbl [6]>
 6 <split [2596/289]> Fold01 <tibble> <tibble> <regsbsts>   <dbl[…]>   <dbl [7]>
 7 <split [2596/289]> Fold01 <tibble> <tibble> <regsbsts>   <dbl[…]>   <dbl [8]>
 8 <split [2596/289]> Fold01 <tibble> <tibble> <regsbsts>   <dbl[…]>   <dbl [9]>
 9 <split [2596/289]> Fold01 <tibble> <tibble> <regsbsts>   <dbl[…]>   <dbl>    
10 <split [2596/289]> Fold01 <tibble> <tibble> <regsbsts>   <dbl[…]>   <dbl>    
# … with 290 more rows, 2 more variables: preds_mat <list>, yhat <list>, and
#   abbreviated variable name ¹​coefficients

Compute the squared residuals \(\left(y-\hat{y}\right)^{2}\).

tidy_data_structure = tidy_data_structure %>% 
 mutate(
   squared_error = map2(.x=yhat, .y=validate, ~(.x-.y$sale_price_log)^2)
  )  
tidy_data_structure %>% dplyr::select(-splits)

# A tibble: 300 × 9
   id     train    validate reg_sub_fits predictors coeffici…¹ preds_…² yhat    
   <chr>  <list>   <list>   <list>       <list>     <list>     <list>   <list>  
 1 Fold01 <tibble> <tibble> <regsbsts>   <dbl[…]>   <dbl [2]>  <dbl[…]> <dbl[…]>
 2 Fold01 <tibble> <tibble> <regsbsts>   <dbl[…]>   <dbl [3]>  <dbl[…]> <dbl[…]>
 3 Fold01 <tibble> <tibble> <regsbsts>   <dbl[…]>   <dbl [4]>  <dbl[…]> <dbl[…]>
 4 Fold01 <tibble> <tibble> <regsbsts>   <dbl[…]>   <dbl [5]>  <dbl[…]> <dbl[…]>
 5 Fold01 <tibble> <tibble> <regsbsts>   <dbl[…]>   <dbl [6]>  <dbl[…]> <dbl[…]>
 6 Fold01 <tibble> <tibble> <regsbsts>   <dbl[…]>   <dbl [7]>  <dbl[…]> <dbl[…]>
 7 Fold01 <tibble> <tibble> <regsbsts>   <dbl[…]>   <dbl [8]>  <dbl[…]> <dbl[…]>
 8 Fold01 <tibble> <tibble> <regsbsts>   <dbl[…]>   <dbl [9]>  <dbl[…]> <dbl[…]>
 9 Fold01 <tibble> <tibble> <regsbsts>   <dbl[…]>   <dbl [10]> <dbl[…]> <dbl[…]>
10 Fold01 <tibble> <tibble> <regsbsts>   <dbl[…]>   <dbl [11]> <dbl[…]> <dbl[…]>
# … with 290 more rows, 1 more variable: squared_error <list>, and abbreviated
#   variable names ¹​coefficients, ²​preds_mat

Compute the RMSEs

tidy_data_structure = tidy_data_structure %>% 
  unnest(squared_error) %>%  group_by(id , coefficients) %>%
  summarise(RMSE=sqrt(mean(squared_error)))

`summarise()` has grouped output by 'id'. You can override using the `.groups`
argument.

tidy_data_structure

# A tibble: 300 × 3
# Groups:   id [10]
   id     coefficients   RMSE
   <chr>  <list>        <dbl>
 1 Fold01 <dbl [2]>    0.127 
 2 Fold01 <dbl [3]>    0.107 
 3 Fold01 <dbl [4]>    0.105 
 4 Fold01 <dbl [5]>    0.101 
 5 Fold01 <dbl [6]>    0.0981
 6 Fold01 <dbl [7]>    0.0956
 7 Fold01 <dbl [8]>    0.0928
 8 Fold01 <dbl [9]>    0.0912
 9 Fold01 <dbl [10]>   0.0905
10 Fold01 <dbl [11]>   0.0901
# … with 290 more rows
…
tree_res <- 
  tree_wf %>% 
  tune_grid(
    resamples = ames_folds,
    grid = tree_grid
    )

Visualizziamo i risultati del nostro workflow che nel caso di un problema di classificazione si parla di area della curva roc e tasso di corretta classificazione o accuracy.

tree_res %>% 
  collect_metrics()

# A tibble: 50 × 8
   cost_complexity tree_depth .metric .estimator  mean     n std_err .config    
             <dbl>      <int> <chr>   <chr>      <dbl> <int>   <dbl> <chr>      
 1    0.0000000001          1 rmse    standard   0.128    10 0.00349 Preprocess…
 2    0.0000000001          1 rsq     standard   0.393    10 0.0184  Preprocess…
 3    0.0000000178          1 rmse    standard   0.128    10 0.00349 Preprocess…
 4    0.0000000178          1 rsq     standard   0.393    10 0.0184  Preprocess…
 5    0.00000316            1 rmse    standard   0.128    10 0.00349 Preprocess…
 6    0.00000316            1 rsq     standard   0.393    10 0.0184  Preprocess…
 7    0.000562              1 rmse    standard   0.128    10 0.00349 Preprocess…
 8    0.000562              1 rsq     standard   0.393    10 0.0184  Preprocess…
 9    0.1                   1 rmse    standard   0.128    10 0.00349 Preprocess…
10    0.1                   1 rsq     standard   0.393    10 0.0184  Preprocess…
# … with 40 more rows
…
i Fold5: preprocessor 1/1, model 9/10 (predictions)

i Fold5: preprocessor 1/1, model 10/10

✓ Fold5: preprocessor 1/1, model 10/10

i Fold5: preprocessor 1/1, model 10/10 (predictions)

! Fold5: internal: A correlation computation is required, but `estimate` is constant and ha...

✓ Fold5: internal

boost_tuned%>%unnest(.metrics)

# A tibble: 150 × 11
   splits            id    min_n tree_…¹ learn…² loss_…³ .metric .esti…⁴ .esti…⁵
   <list>            <chr> <int>   <int>   <dbl>   <dbl> <chr>   <chr>     <dbl>
 1 <split [460/116]> Fold1     6       1 2.08e-2 2.07e-2 rmse    standa…  0.0647
 2 <split [460/116]> Fold1     6       1 2.08e-2 2.07e-2 rsq     standa…  0.781 
 3 <split [460/116]> Fold1     6       1 2.08e-2 2.07e-2 mae     standa…  0.0457
 4 <split [460/116]> Fold1    25       3 6.23e-3 5.06e-2 rmse    standa…  0.0646
 5 <split [460/116]> Fold1    25       3 6.23e-3 5.06e-2 rsq     standa…  0.786 
 6 <split [460/116]> Fold1    25       3 6.23e-3 5.06e-2 mae     standa…  0.0456
 7 <split [460/116]> Fold1    26      14 3.74e-9 6.46e-7 rmse    standa…  4.72  
 8 <split [460/116]> Fold1    26      14 3.74e-9 6.46e-7 rsq     standa… NA     
 9 <split [460/116]> Fold1    26      14 3.74e-9 6.46e-7 mae     standa…  4.72  
10 <split [460/116]> Fold1    15       5 3.50e-8 1.74e-7 rmse    standa…  4.72  
# … with 140 more rows, 2 more variables: .config <chr>, .notes <list>, and
#   abbreviated variable names ¹​tree_depth, ²​learn_rate, ³​loss_reduction,
#   ⁴​.estimator, ⁵​.estimate
…
ames_wflow=workflow() %>%
  add_recipe(ames_recipe) %>%
  add_model(ames_knn)

library("kknn")
ames_fold2=vfold_cv(ames_train,v=2)

ames_knn_fit= ames_wflow %>% 
  tune_grid(resamples = ames_fold2, #uso un fold con 2 split
            grid=k_grid)

ames_knn_fit %>% unnest(.metrics)

# A tibble: 24 × 8
   splits              id    neighbors .metric .estim…¹ .esti…² .config .notes  
   <list>              <chr>     <int> <chr>   <chr>      <dbl> <chr>   <list>  
 1 <split [1081/1082]> Fold1         1 rmse    standard  0.101  Prepro… <tibble>
 2 <split [1081/1082]> Fold1         2 rmse    standard  0.0939 Prepro… <tibble>
 3 <split [1081/1082]> Fold1         4 rmse    standard  0.0858 Prepro… <tibble>
 4 <split [1081/1082]> Fold1         6 rmse    standard  0.0823 Prepro… <tibble>
 5 <split [1081/1082]> Fold1         8 rmse    standard  0.0807 Prepro… <tibble>
 6 <split [1081/1082]> Fold1        10 rmse    standard  0.0798 Prepro… <tibble>
 7 <split [1081/1082]> Fold1         1 rsq     standard  0.652  Prepro… <tibble>
 8 <split [1081/1082]> Fold1         2 rsq     standard  0.689  Prepro… <tibble>
 9 <split [1081/1082]> Fold1         4 rsq     standard  0.732  Prepro… <tibble>
10 <split [1081/1082]> Fold1         6 rsq     standard  0.751  Prepro… <tibble>
# … with 14 more rows, and abbreviated variable names ¹​.estimator, ²​.estimate
…
ames_K_tuned = ames_wflow %>% 
  tune_grid(resamples = ames_folds,
            grid=k_grid)

ames_K_tuned %>% unnest(.metrics)

# A tibble: 60 × 8
   splits             id    neighbors .metric .estima…¹ .esti…² .config .notes  
   <list>             <chr>     <int> <chr>   <chr>       <dbl> <chr>   <list>  
 1 <split [1730/433]> Fold1         1 rmse    standard   0.0901 Prepro… <tibble>
 2 <split [1730/433]> Fold1         2 rmse    standard   0.0848 Prepro… <tibble>
 3 <split [1730/433]> Fold1         4 rmse    standard   0.0771 Prepro… <tibble>
 4 <split [1730/433]> Fold1         6 rmse    standard   0.0732 Prepro… <tibble>
 5 <split [1730/433]> Fold1         8 rmse    standard   0.0710 Prepro… <tibble>
 6 <split [1730/433]> Fold1        10 rmse    standard   0.0698 Prepro… <tibble>
 7 <split [1730/433]> Fold1         1 rsq     standard   0.671  Prepro… <tibble>
 8 <split [1730/433]> Fold1         2 rsq     standard   0.700  Prepro… <tibble>
 9 <split [1730/433]> Fold1         4 rsq     standard   0.743  Prepro… <tibble>
10 <split [1730/433]> Fold1         6 rsq     standard   0.765  Prepro… <tibble>
# … with 50 more rows, and abbreviated variable names ¹​.estimator, ²​.estimate
…
